<?xml version="1.0" encoding="UTF-8" standalone="no"?>
<svg
   xmlns:dc="http://purl.org/dc/elements/1.1/"
   xmlns:cc="http://creativecommons.org/ns#"
   xmlns:rdf="http://www.w3.org/1999/02/22-rdf-syntax-ns#"
   xmlns:svg="http://www.w3.org/2000/svg"
   xmlns="http://www.w3.org/2000/svg"
   xmlns:sodipodi="http://sodipodi.sourceforge.net/DTD/sodipodi-0.dtd"
   xmlns:inkscape="http://www.inkscape.org/namespaces/inkscape"
   version="1.1"
   id="svg1"
   width="16"
   height="16"
   viewBox="0 0 16 16"
   sodipodi:docname="align-horizontal-left-symbolic.svg"
   inkscape:version="1.0beta0 (1b5d333, 2019-09-08)">
<style id="s0">
   .base    { fill: #000000; }
   .success { fill: #009909; }
   .warning { fill: #FF1990; }
   .error   { fill: #00AAFF; }
   .dark    {  }
  </style>
  <style id="s2"> 
     @import '../../highlights.css'; 
  </style>
     
<metadata
     id="metadata280">
    <rdf:RDF>
      <cc:Work
         rdf:about="">
        <dc:format>image/svg+xml</dc:format>
        <dc:type
           rdf:resource="http://purl.org/dc/dcmitype/StillImage" />
      </cc:Work>
    </rdf:RDF>
  </metadata>
  <defs
     id="defs278" />
  <sodipodi:namedview
     objecttolerance="10"
     gridtolerance="10"
     guidetolerance="10"
     id="namedview"
     showgrid="true"
     inkscape:zoom="15.839192"
     inkscape:cx="20.109994"
     inkscape:cy="23.69783"
     inkscape:window-width="1858"
     inkscape:window-height="1177"
     inkscape:window-x="54"
     inkscape:window-y="-8"
     inkscape:window-maximized="1"
     inkscape:current-layer="g22133"
     inkscape:snap-global="false">
    <inkscape:grid
       type="xygrid"
       id="grid" />
  </sodipodi:namedview>
  <g
     transform="matrix(0.666667,0,0,0.666666,-721.33333,-396.90779)"
     inkscape:label="00269"
     id="align-horizontal-left">
    <g
       id="g22133">
      <path
         inkscape:connector-curvature="0"
         id="rect22111"
         d="m -1106,595.36218 h 24 v 24 h -24 z"
         style="opacity:0;fill:none"
         transform="scale(-1,1)" />
      <path
         inkscape:connector-curvature="0"
         id="rect22115"
         d="m 1085.4495,595.36218 h -1.5 v 24 h 1.5 z"
         style="opacity:1;fill-opacity:1"
         class="success" />
      <path
         inkscape:connector-curvature="0"
         id="rect22117"
         d="m -1103,595.36218 h 16 v 5 h -16 z"
         style="opacity:1"
         transform="scale(-1,1)" />
      <path
         inkscape:connector-curvature="0"
         id="rect22119"
         d="m -1097,602.36218 h 10 v 3.00001 h -10 z"
         style="opacity:1"
         transform="scale(-1,1)" />
      <path
         inkscape:connector-curvature="0"
         id="rect22121"
         d="m -1101,607.36218 h 14 v 4 h -14 z"
         style="opacity:1"
         transform="scale(-1,1)" />
      <path
         transform="matrix(1.4999993,0,0,1.5000015,1081.9995,595.36228)"
         d="m 5.3339844,12 -2,2 2,2 V 14.666016 H 11.333984 V 13.333984 H 5.3339844 Z"
         style="opacity:0.5"
         id="path22129"
         inkscape:connector-curvature="0" />
    </g>
  </g>
</svg>
