<?xml version="1.0" encoding="UTF-8" standalone="no"?>
<svg
   xmlns:dc="http://purl.org/dc/elements/1.1/"
   xmlns:cc="http://creativecommons.org/ns#"
   xmlns:rdf="http://www.w3.org/1999/02/22-rdf-syntax-ns#"
   xmlns:svg="http://www.w3.org/2000/svg"
   xmlns="http://www.w3.org/2000/svg"
   xmlns:sodipodi="http://sodipodi.sourceforge.net/DTD/sodipodi-0.dtd"
   xmlns:inkscape="http://www.inkscape.org/namespaces/inkscape"
   inkscape:version="1.0beta0 (1b5d333, 2019-09-08)"
   sodipodi:docname="distribute-graph-directed-symbolic.svg"
   viewBox="0 0 16 16"
   height="16"
   width="16"
   id="svg1"
   version="1.1">
<style id="s0">
   .base    { fill: #000000; }
   .success { fill: #009909; }
   .warning { fill: #FF1990; }
   .error   { fill: #00AAFF; }
   .dark    {  }
  </style>
  <style id="s2"> 
     @import '../../highlights.css'; 
  </style>
     
<metadata
     id="metadata2696">
    <rdf:RDF>
      <cc:Work
         rdf:about="">
        <dc:format>image/svg+xml</dc:format>
        <dc:type
           rdf:resource="http://purl.org/dc/dcmitype/StillImage" />
      </cc:Work>
    </rdf:RDF>
  </metadata>
  <defs
     id="defs2694" />
  <sodipodi:namedview
     inkscape:current-layer="svg1"
     inkscape:window-maximized="1"
     inkscape:window-y="-8"
     inkscape:window-x="54"
     inkscape:window-height="1177"
     inkscape:window-width="1858"
     inkscape:cy="11.016755"
     inkscape:cx="11.728593"
     inkscape:zoom="38.41879"
     showgrid="true"
     id="namedview"
     guidetolerance="10"
     gridtolerance="10"
     objecttolerance="10">
    <inkscape:grid
       id="grid"
       type="xygrid" />
  </sodipodi:namedview>
  <g
     id="distribute-graph-directed"
     inkscape:label="00293"
     transform="matrix(0.666667,0,0,0.666666,-794.66667,-548.9076)">
    <path
       style="opacity:0;fill:none"
       d="m 1192,823.36218 h 24 v 24 h -24 z"
       id="rect19472"
       inkscape:connector-curvature="0" />
    <path
       sodipodi:nodetypes="ccccc"
       transform="translate(-1,509.3622)"
       style="opacity:1"
       d="m 1197.0071,317.99999 c -1.1017,0.004 -1.9991,-0.88399 -2.007,-1.98571 -0.01,-1.10174 0.8768,-2.00235 1.9785,-2.01417 1.1017,-0.0118 2.0055,0.86966 2.0134,1.98567 0.01,1.11602 -0.8831,2.0103 -1.9849,2.01421 z"
       id="path19474"
       inkscape:connector-curvature="0" />
    <path
       sodipodi:nodetypes="ccccc"
       transform="translate(2,509.3622)"
       style="opacity:1"
       d="m 1210.0071,317.99999 c -1.1017,0.004 -1.9991,-0.88399 -2.007,-1.98571 -0.01,-1.10174 0.8768,-2.00235 1.9785,-2.01417 1.1017,-0.0118 2.0055,0.86966 2.0135,1.98568 0.01,1.11601 -0.8832,2.01029 -1.985,2.0142 z"
       id="path19476"
       inkscape:connector-curvature="0" />
    <path
       sodipodi:nodetypes="ccccc"
       inkscape:connector-curvature="0"
       id="path19478"
       transform="translate(-6,518.3622)"
       d="m 1210.0071,317.99999 c -1.1017,0.004 -1.9991,-0.88399 -2.007,-1.98571 -0.01,-1.10174 0.8768,-2.00235 1.9785,-2.01417 1.1017,-0.0118 2.0055,0.86966 2.0134,1.98568 0.01,1.11601 -0.8831,2.01029 -1.9849,2.0142 z"
       style="opacity:1" />
    <path
       sodipodi:nodetypes="ccccc"
       transform="translate(-6,529.3622)"
       style="opacity:1"
       d="m 1210.0071,317.99999 c -1.1017,0.004 -1.9991,-0.88399 -2.007,-1.98571 -0.01,-1.10174 0.8768,-2.00235 1.9785,-2.01417 1.1017,-0.0118 2.0055,0.86966 2.0134,1.98567 0.01,1.11602 -0.8831,2.0103 -1.9849,2.01421 z"
       id="path19480"
       inkscape:connector-curvature="0" />
    <path
       class="success"
       style="opacity:1;fill-opacity:1"
       d="m 1209.72,826.5042 1.176,1.2264 -2.248,2.1781 1.475,1.4485 -4.123,0.005 v 0 l -0.01,-4.1231 1.477,1.443 z"
       id="path19568"
       inkscape:connector-curvature="0" />
    <path
       class="success"
       style="opacity:1;fill-opacity:1"
       d="m 1205,837.3622 h -2 v 2 h -2 l 3,3 v 0 l 3.064,-2.9298 -2.064,-0.0702 z"
       id="path19570"
       inkscape:connector-curvature="0" />
    <path
       class="success"
       inkscape:connector-curvature="0"
       id="path19572"
       d="m 1198.28,826.5042 -1.176,1.2264 2.248,2.1781 -1.475,1.4485 4.123,0.005 v 0 l 0.01,-4.1231 -1.477,1.443 z"
       style="opacity:1;fill-opacity:1" />
  </g>
  <path
     inkscape:connector-curvature="0"
     id="rect22390"
     d="M 35.460611,7.6666615 V 8.666662 H 19.460603 V 7.6666615 Z"
     style="opacity:1;fill-opacity:1;"
     class="success" />
</svg>
