<?xml version="1.0" encoding="UTF-8" standalone="no"?>
<svg
   xmlns:dc="http://purl.org/dc/elements/1.1/"
   xmlns:cc="http://creativecommons.org/ns#"
   xmlns:rdf="http://www.w3.org/1999/02/22-rdf-syntax-ns#"
   xmlns:svg="http://www.w3.org/2000/svg"
   xmlns="http://www.w3.org/2000/svg"
   xmlns:sodipodi="http://sodipodi.sourceforge.net/DTD/sodipodi-0.dtd"
   xmlns:inkscape="http://www.inkscape.org/namespaces/inkscape"
   inkscape:version="1.0beta2 (7cf281c, 2019-12-21)"
   sodipodi:docname="draw-geometry-angle-bisector-symbolic.svg"
   viewBox="0 0 16 16"
   height="16"
   width="16"
   id="svg1"
   version="1.1">
  <metadata
     id="metadata4776">
    <rdf:RDF>
      <cc:Work
         rdf:about="">
        <dc:format>image/svg+xml</dc:format>
        <dc:type
           rdf:resource="http://purl.org/dc/dcmitype/StillImage" />
      </cc:Work>
    </rdf:RDF>
  </metadata>
  <defs
     id="defs4774" />
  <style
     id="s0">
.base { fill:#000000; }
.success { fill:#009909; }
.warning { fill:#FF1990; }
.error { fill:#00AAFF; }
.dark { }
</style>
  <style
     id="s2">
@import '../../highlights.css';
</style>
  <sodipodi:namedview
     inkscape:current-layer="svg1"
     inkscape:window-maximized="1"
     inkscape:window-y="-6"
     inkscape:window-x="65"
     inkscape:window-height="890"
     inkscape:window-width="1296"
     inkscape:cy="8"
     inkscape:cx="8"
     inkscape:zoom="41.125"
     showgrid="true"
     id="namedview"
     guidetolerance="10"
     gridtolerance="10"
     objecttolerance="10">
    <inkscape:grid
       id="grid"
       type="xygrid" />
  </sodipodi:namedview>
  <g
     id="draw-geometry-angle-bisector"
     inkscape:label="00226"
     transform="matrix(0.995615,0,0,0.998661,-646.09631,-588.55169)">
    <path
       transform="translate(0,512.3622)"
       style="opacity:0;fill:none"
       d="m 649,77 h 16 v 16 h -16 z"
       id="rect14611"
       inkscape:connector-curvature="0" />
    <path
       style="opacity:1;stroke-linecap:round"
       d="m 649.49609,589.3418 a 0.58990589,0.58990589 0 0 0 -0.39257,0.99414 l 13.64843,14.81445 a 0.58990589,0.58990589 0 1 0 0.86719,-0.79883 L 649.9707,589.53711 a 0.58990589,0.58990589 0 0 0 -0.47461,-0.19531 z"
       id="path4418-8-1"
       inkscape:connector-curvature="0" />
    <path
       style="opacity:1;stroke-linecap:round"
       d="m 652.28906,592.17188 a 0.58990589,0.58990589 0 0 0 -0.57422,0.7539 L 655,604.26367 a 0.58990589,0.58990589 0 1 0 1.13281,-0.32812 l -2.93359,-10.12891 10.9668,4.80274 a 0.58990589,0.58990589 0 1 0 0.47265,-1.08008 l -12.11914,-5.3086 a 0.58990589,0.58990589 0 0 0 -0.23047,-0.0488 z"
       id="path4418-8-1-0"
       inkscape:connector-curvature="0" />
  </g>
</svg>
