<?xml version="1.0" encoding="UTF-8" standalone="no"?>
<svg
   xmlns:dc="http://purl.org/dc/elements/1.1/"
   xmlns:cc="http://creativecommons.org/ns#"
   xmlns:rdf="http://www.w3.org/1999/02/22-rdf-syntax-ns#"
   xmlns:svg="http://www.w3.org/2000/svg"
   xmlns="http://www.w3.org/2000/svg"
   xmlns:sodipodi="http://sodipodi.sourceforge.net/DTD/sodipodi-0.dtd"
   xmlns:inkscape="http://www.inkscape.org/namespaces/inkscape"
   inkscape:version="1.0beta0 (1d85f8e, 2019-09-11)"
   sodipodi:docname="node-join-symbolic.svg"
   viewBox="0 0 16 16"
   height="16"
   width="16"
   id="svg1"
   version="1.1">
<style id="s0">
   .base    { fill: #000000; }
   .success { fill: #009909; }
   .warning { fill: #FF1990; }
   .error   { fill: #00AAFF; }
   .dark    {  }
  </style>
  <style id="s2"> 
     @import '../../highlights.css'; 
  </style>
   
  <metadata
     id="metadata1071">
    <rdf:RDF>
      <cc:Work
         rdf:about="">
        <dc:format>image/svg+xml</dc:format>
        <dc:type
           rdf:resource="http://purl.org/dc/dcmitype/StillImage" />
      </cc:Work>
    </rdf:RDF>
  </metadata>
  <defs
     id="defs1069" />
  <sodipodi:namedview
     inkscape:current-layer="svg1"
     inkscape:window-maximized="1"
     inkscape:window-y="-8"
     inkscape:window-x="54"
     inkscape:window-height="1177"
     inkscape:window-width="1858"
     inkscape:cy="16.069573"
     inkscape:cx="10.98376"
     inkscape:zoom="31.678384"
     showgrid="true"
     id="namedview"
     guidetolerance="10"
     gridtolerance="10"
     objecttolerance="10">
    <inkscape:grid
       id="grid"
       type="xygrid" />
  </sodipodi:namedview>
  <g
     inkscape:label="00164"
     id="node-join"
     transform="translate(-438,-558.36218)">
    <path
       style="opacity:0;fill:none"
       d="m 438,558.36218 h 16 v 16 h -16 z"
       id="rect3630"
       inkscape:connector-curvature="0" />
    <path
       style="opacity:1"
       d="m 440,558.36218 h 4 v 4 h -4 z"
       id="rect3632"
       inkscape:connector-curvature="0" />
    <path
       style="opacity:1"
       d="m 448,558.36218 h 4 v 4 h -4 z"
       id="rect19498"
       inkscape:connector-curvature="0" />
    <path
       transform="translate(0,512.3622)"
       style="opacity:1"
       d="m 438,59 h 16 v 1 h -16 z"
       id="rect19520"
       inkscape:connector-curvature="0" />
    <path
       style="opacity:1"
       d="m 438,559.36218 h 3 v 1 h -3 z"
       id="rect19524"
       inkscape:connector-curvature="0" />
    <path
       style="opacity:1"
       d="m 451,559.36218 h 3 v 1 h -3 z"
       id="rect19526"
       inkscape:connector-curvature="0" />
  </g>
  <path
     class="success"
     style="opacity:1;fill:#00990a;stroke-width:0.864555"
     d="m 6,12.262691 h 4 V 16 H 6 Z"
     id="path1662"
     inkscape:connector-curvature="0" />
  <path
     inkscape:connector-curvature="0"
     id="path19516"
     d="m 7,5.0117 h 2 v 3 h 2 L 8,11 5,8.0117 h 2 z"
     style="opacity:1"
     class="success" />
</svg>
