<?xml version="1.0" encoding="UTF-8" standalone="no"?>
<svg
   xmlns:dc="http://purl.org/dc/elements/1.1/"
   xmlns:cc="http://creativecommons.org/ns#"
   xmlns:rdf="http://www.w3.org/1999/02/22-rdf-syntax-ns#"
   xmlns:svg="http://www.w3.org/2000/svg"
   xmlns="http://www.w3.org/2000/svg"
   xmlns:sodipodi="http://sodipodi.sourceforge.net/DTD/sodipodi-0.dtd"
   xmlns:inkscape="http://www.inkscape.org/namespaces/inkscape"
   inkscape:version="1.0beta2 (7cf281c, 2019-12-21)"
   sodipodi:docname="paint-gradient-mesh-symbolic.svg"
   viewBox="0 0 16 16"
   height="16"
   width="16"
   id="svg1"
   version="1.1">
  <metadata
     id="metadata14405">
    <rdf:RDF>
      <cc:Work
         rdf:about="">
        <dc:format>image/svg+xml</dc:format>
        <dc:type
           rdf:resource="http://purl.org/dc/dcmitype/StillImage" />
      </cc:Work>
    </rdf:RDF>
  </metadata>
  <defs
     id="defs14403" />
  <style
     id="s0">
.base { fill:#000000; }
.success { fill:#009909; }
.warning { fill:#FF1990; }
.error { fill:#00AAFF; }
.dark { }
</style>
  <style
     id="s2">
@import '../../highlights.css';
</style>
  <sodipodi:namedview
     inkscape:current-layer="svg1"
     inkscape:window-maximized="1"
     inkscape:window-y="-6"
     inkscape:window-x="65"
     inkscape:window-height="890"
     inkscape:window-width="1296"
     inkscape:cy="8"
     inkscape:cx="8"
     inkscape:zoom="41.125"
     showgrid="true"
     id="namedview"
     guidetolerance="10"
     gridtolerance="10"
     objecttolerance="10">
    <inkscape:grid
       id="grid"
       type="xygrid" />
  </sodipodi:namedview>
  <g
     id="paint-gradient-mesh"
     inkscape:label="00349">
    <path
       style="opacity:0;fill:none"
       d="M 0,0 H 16 V 16 H 0 Z"
       id="rect36986"
       inkscape:connector-curvature="0" />
    <path
       style="opacity:0.6"
       d="M 1,1 H 8 V 8 H 1 Z"
       id="rect36988"
       inkscape:connector-curvature="0" />
    <path
       style="opacity:0.6"
       d="m 8,8 h 7 v 7 H 8 Z"
       id="rect36990"
       inkscape:connector-curvature="0" />
    <path
       style="opacity:1;stroke-linecap:butt"
       d="M 1.5,0 C 0.67764862,0 0,0.67764862 0,1.5 v 13 C 0,15.322351 0.67764862,16 1.5,16 h 13 C 15.322351,16 16,15.322351 16,14.5 V 1.5 C 16,0.67764862 15.322351,0 14.5,0 Z m 0,1 h 13 C 14.785649,1 15,1.2143514 15,1.5 v 13 C 15,14.785649 14.785649,15 14.5,15 H 1.5 C 1.2143514,15 1,14.785649 1,14.5 V 1.5 C 1,1.2143514 1.2143514,1 1.5,1 Z"
       id="rect36992"
       inkscape:connector-curvature="0" />
  </g>
</svg>
