<?xml version="1.0" encoding="UTF-8" standalone="no"?>
<svg
   xmlns:dc="http://purl.org/dc/elements/1.1/"
   xmlns:cc="http://creativecommons.org/ns#"
   xmlns:rdf="http://www.w3.org/1999/02/22-rdf-syntax-ns#"
   xmlns:svg="http://www.w3.org/2000/svg"
   xmlns="http://www.w3.org/2000/svg"
   xmlns:sodipodi="http://sodipodi.sourceforge.net/DTD/sodipodi-0.dtd"
   xmlns:inkscape="http://www.inkscape.org/namespaces/inkscape"
   inkscape:version="1.1-dev (6039630, 2019-12-20)"
   sodipodi:docname="text_word_spacing-symbolic.svg"
   viewBox="0 0 16 16"
   height="16"
   width="16"
   id="svg1"
   version="1.1">
  <metadata
     id="metadata4402">
    <rdf:RDF>
      <cc:Work
         rdf:about="">
        <dc:format>image/svg+xml</dc:format>
        <dc:type
           rdf:resource="http://purl.org/dc/dcmitype/StillImage" />
      </cc:Work>
    </rdf:RDF>
  </metadata>
  <defs
     id="defs4400" />
  <style
     id="s0">
.base { fill:#000000; }
.success { fill:#009909; }
.warning { fill:#FF1990; }
.error { fill:#00AAFF; }
.dark { }
</style>
  <style
     id="s2">
@import '../../highlights.css';
</style>
  <sodipodi:namedview
     inkscape:current-layer="text_word_spacing"
     inkscape:window-maximized="1"
     inkscape:window-y="-6"
     inkscape:window-x="65"
     inkscape:window-height="890"
     inkscape:window-width="1296"
     inkscape:cy="4.6440597"
     inkscape:cx="10.671806"
     inkscape:zoom="21.625"
     showgrid="true"
     id="namedview"
     guidetolerance="10"
     gridtolerance="10"
     objecttolerance="10">
    <inkscape:grid
       id="grid"
       type="xygrid" />
  </sodipodi:namedview>
  <g
     id="text_word_spacing"
     inkscape:label="00180"
     transform="translate(-409,-836.36218)">
    <path
       style="opacity:0;fill:none"
       d="m 409,836.36218 h 16 v 16 h -16 z"
       id="rect21014"
       inkscape:connector-curvature="0" />
    <text
       xml:space="preserve"
       style="font-style:normal;font-variant:normal;font-weight:600;font-stretch:normal;font-size:8.92042px;line-height:1.25;font-family:'Work Sans';-inkscape-font-specification:'Work Sans Semi-Bold';letter-spacing:0px;word-spacing:0px;fill:#000000;fill-opacity:1;stroke:none;stroke-width:1.67257"
       x="408.05994"
       y="847.77661"
       id="text11792"><tspan
         sodipodi:role="line"
         id="tspan11790"
         x="408.05994"
         y="847.77661"
         style="font-style:normal;font-variant:normal;font-weight:600;font-stretch:normal;font-family:'Work Sans';-inkscape-font-specification:'Work Sans Semi-Bold';letter-spacing:-0.3px;word-spacing:-0.1px;stroke-width:1.67257">in</tspan></text>
    <text
       id="text11788"
       y="847.74011"
       x="418.18063"
       style="font-style:normal;font-variant:normal;font-weight:600;font-stretch:normal;font-size:9.05149px;line-height:1.25;font-family:'Work Sans';-inkscape-font-specification:'Work Sans Semi-Bold';letter-spacing:0px;word-spacing:0px;fill:#000000;fill-opacity:1;stroke:none;stroke-width:1.69715;"
       xml:space="preserve"><tspan
         style="font-style:normal;font-variant:normal;font-weight:600;font-stretch:normal;font-family:'Work Sans';-inkscape-font-specification:'Work Sans Semi-Bold';stroke-width:1.69715;"
         y="847.74011"
         x="418.18063"
         id="tspan11786"
         sodipodi:role="line">th</tspan></text>
  </g>
</svg>
